…
``` r
install.packages("tidyverse")
```

### Construct a `tibble` (`tibble`)

``` r
library(tidyverse)
as_tibble(iris) # coerce data.frame to tibble tbl
```

    ## # A tibble: 150 x 5
    ##    Sepal.Length Sepal.Width Petal.Length Petal.Width Species
    ##           <dbl>       <dbl>        <dbl>       <dbl> <fct>  
    ##  1          5.1         3.5          1.4         0.2 setosa 
    ##  2          4.9         3            1.4         0.2 setosa 
    ##  3          4.7         3.2          1.3         0.2 setosa 
    ##  4          4.6         3.1          1.5         0.2 setosa 
    ##  5          5           3.6          1.4         0.2 setosa 
    ##  6          5.4         3.9          1.7         0.4 setosa 
    ##  7          4.6         3.4          1.4         0.3 setosa 
    ##  8          5           3.4          1.5         0.2 setosa 
    ##  9          4.4         2.9          1.4         0.2 setosa 
    ## 10          4.9         3.1          1.5         0.1 setosa 
    ## # … with 140 more rows
…
Create a sample tab delimited file for import

``` r
write_tsv(iris, "iris.txt") # Creates sample file
```

Import with `read_tsv`

``` r
iris_df <- read_tsv("iris.txt") # Import with read_tbv from readr package
iris_df
```

    ## # A tibble: 150 x 5
    ##    Sepal.Length Sepal.Width Petal.Length Petal.Width Species
    ##           <dbl>       <dbl>        <dbl>       <dbl> <chr>  
    ##  1          5.1         3.5          1.4         0.2 setosa 
    ##  2          4.9         3            1.4         0.2 setosa 
    ##  3          4.7         3.2          1.3         0.2 setosa 
    ##  4          4.6         3.1          1.5         0.2 setosa 
    ##  5          5           3.6          1.4         0.2 setosa 
    ##  6          5.4         3.9          1.7         0.4 setosa 
    ##  7          4.6         3.4          1.4         0.3 setosa 
    ##  8          5           3.4          1.5         0.2 setosa 
    ##  9          4.4         2.9          1.4         0.2 setosa 
    ## 10          4.9         3.1          1.5         0.1 setosa 
    ## # … with 140 more rows

To import Google Sheets directly into R, see [here](https://girke.bioinformatics.ucr.edu/GEN242/tutorials/rbasics/rbasics/#reading-and-writing-external-data).

#### Fast table import with `fread`

The `fread` function from the `data.table` package provides the best time performance for reading large
tabular files into R.

``` r
library(data.table)
iris_df <- as_data_frame(fread("iris.txt")) # Import with fread and conversion to tibble
iris_df
```

    ## # A tibble: 150 x 5
    ##    Sepal.Length Sepal.Width Petal.Length Petal.Width Species
    ##           <dbl>       <dbl>        <dbl>       <dbl> <chr>  
    ##  1          5.1         3.5          1.4         0.2 setosa 
    ##  2          4.9         3            1.4         0.2 setosa 
    ##  3          4.7         3.2          1.3         0.2 setosa 
    ##  4          4.6         3.1          1.5         0.2 setosa 
    ##  5          5           3.6          1.4         0.2 setosa 
    ##  6          5.4         3.9          1.7         0.4 setosa 
    ##  7          4.6         3.4          1.4         0.3 setosa 
    ##  8          5           3.4          1.5         0.2 setosa 
    ##  9          4.4         2.9          1.4         0.2 setosa 
    ## 10          4.9         3.1          1.5         0.1 setosa 
    ## # … with 140 more rows
…
``` r
write_tsv(iris_df, "iris.txt")
```

### Column and row binds

The equivalents to base R’s `rbind` and `cbind` are `bind_rows` and `bind_cols`, respectively.

``` r
bind_cols(iris_df, iris_df)
```

    ## # A tibble: 150 x 10
    ##    Sepal.Length...1 Sepal.Width...2 Petal.Length...3 Petal.Width...4 Species...5 Sepal.Length...6
    ##               <dbl>           <dbl>            <dbl>           <dbl> <chr>                  <dbl>
    ##  1              5.1             3.5              1.4             0.2 setosa                   5.1
    ##  2              4.9             3                1.4             0.2 setosa                   4.9
    ##  3              4.7             3.2              1.3             0.2 setosa                   4.7
    ##  4              4.6             3.1              1.5             0.2 setosa                   4.6
    ##  5              5               3.6              1.4             0.2 setosa                   5  
    ##  6              5.4             3.9              1.7             0.4 setosa                   5.4
    ##  7              4.6             3.4              1.4             0.3 setosa                   4.6
    ##  8              5               3.4              1.5             0.2 setosa                   5  
    ##  9              4.4             2.9              1.4             0.2 setosa                   4.4
    ## 10              4.9             3.1              1.5             0.1 setosa                   4.9
    ## # … with 140 more rows, and 4 more variables: Sepal.Width...7 <dbl>, Petal.Length...8 <dbl>,
    ## #   Petal.Width...9 <dbl>, Species...10 <chr>

``` r
bind_rows(iris_df, iris_df)
```

    ## # A tibble: 300 x 5
    ##    Sepal.Length Sepal.Width Petal.Length Petal.Width Species
    ##           <dbl>       <dbl>        <dbl>       <dbl> <chr>  
    ##  1          5.1         3.5          1.4         0.2 setosa 
    ##  2          4.9         3            1.4         0.2 setosa 
    ##  3          4.7         3.2          1.3         0.2 setosa 
    ##  4          4.6         3.1          1.5         0.2 setosa 
    ##  5          5           3.6          1.4         0.2 setosa 
    ##  6          5.4         3.9          1.7         0.4 setosa 
    ##  7          4.6         3.4          1.4         0.3 setosa 
    ##  8          5           3.4          1.5         0.2 setosa 
    ##  9          4.4         2.9          1.4         0.2 setosa 
    ## 10          4.9         3.1          1.5         0.1 setosa 
    ## # … with 290 more rows
…
### Sorting with `arrange`

Row-wise ordering based on specific columns

`dplyr` approach

``` r
arrange(iris_df, Species, Sepal.Length, Sepal.Width)
```

    ## # A tibble: 150 x 5
    ##    Sepal.Length Sepal.Width Petal.Length Petal.Width Species
    ##           <dbl>       <dbl>        <dbl>       <dbl> <chr>  
    ##  1          4.3         3            1.1         0.1 setosa 
    ##  2          4.4         2.9          1.4         0.2 setosa 
    ##  3          4.4         3            1.3         0.2 setosa 
    ##  4          4.4         3.2          1.3         0.2 setosa 
    ##  5          4.5         2.3          1.3         0.3 setosa 
    ##  6          4.6         3.1          1.5         0.2 setosa 
    ##  7          4.6         3.2          1.4         0.2 setosa 
    ##  8          4.6         3.4          1.4         0.3 setosa 
    ##  9          4.6         3.6          1           0.2 setosa 
    ## 10          4.7         3.2          1.3         0.2 setosa 
    ## # … with 140 more rows

For ordering descendingly use `desc()` function

``` r
arrange(iris_df, desc(Species), Sepal.Length, Sepal.Width)
```

    ## # A tibble: 150 x 5
    ##    Sepal.Length Sepal.Width Petal.Length Petal.Width Species  
    ##           <dbl>       <dbl>        <dbl>       <dbl> <chr>    
    ##  1          4.9         2.5          4.5         1.7 virginica
    ##  2          5.6         2.8          4.9         2   virginica
    ##  3          5.7         2.5          5           2   virginica
    ##  4          5.8         2.7          5.1         1.9 virginica
    ##  5          5.8         2.7          5.1         1.9 virginica
    ##  6          5.8         2.8          5.1         2.4 virginica
    ##  7          5.9         3            5.1         1.8 virginica
    ##  8          6           2.2          5           1.5 virginica
    ##  9          6           3            4.8         1.8 virginica
    ## 10          6.1         2.6          5.6         1.4 virginica
    ## # … with 140 more rows

Base R code equivalent

``` r
iris_df[order(iris_df$Species, iris_df$Sepal.Length, iris_df$Sepal.Width), ]
```

    ## # A tibble: 150 x 5
    ##    Sepal.Length Sepal.Width Petal.Length Petal.Width Species
    ##           <dbl>       <dbl>        <dbl>       <dbl> <chr>  
    ##  1          4.3         3            1.1         0.1 setosa 
    ##  2          4.4         2.9          1.4         0.2 setosa 
    ##  3          4.4         3            1.3         0.2 setosa 
    ##  4          4.4         3.2          1.3         0.2 setosa 
    ##  5          4.5         2.3          1.3         0.3 setosa 
    ##  6          4.6         3.1          1.5         0.2 setosa 
    ##  7          4.6         3.2          1.4         0.2 setosa 
    ##  8          4.6         3.4          1.4         0.3 setosa 
    ##  9          4.6         3.6          1           0.2 setosa 
    ## 10          4.7         3.2          1.3         0.2 setosa 
    ## # … with 140 more rows

``` r
iris_df[order(iris_df$Species, decreasing=TRUE), ] 
```

    ## # A tibble: 150 x 5
    ##    Sepal.Length Sepal.Width Petal.Length Petal.Width Species  
    ##           <dbl>       <dbl>        <dbl>       <dbl> <chr>    
    ##  1          6.3         3.3          6           2.5 virginica
    ##  2          5.8         2.7          5.1         1.9 virginica
    ##  3          7.1         3            5.9         2.1 virginica
    ##  4          6.3         2.9          5.6         1.8 virginica
    ##  5          6.5         3            5.8         2.2 virginica
    ##  6          7.6         3            6.6         2.1 virginica
    ##  7          4.9         2.5          4.5         1.7 virginica
    ##  8          7.3         2.9          6.3         1.8 virginica
    ##  9          6.7         2.5          5.8         1.8 virginica
    ## 10          7.2         3.6          6.1         2.5 virginica
    ## # … with 140 more rows

### Select columns with `select`

Select specific columns

``` r
select(iris_df, Species, Petal.Length, Sepal.Length)
```

    ## # A tibble: 150 x 3
    ##    Species Petal.Length Sepal.Length
    ##    <chr>          <dbl>        <dbl>
    ##  1 setosa           1.4          5.1
    ##  2 setosa           1.4          4.9
    ##  3 setosa           1.3          4.7
    ##  4 setosa           1.5          4.6
    ##  5 setosa           1.4          5  
    ##  6 setosa           1.7          5.4
    ##  7 setosa           1.4          4.6
    ##  8 setosa           1.5          5  
    ##  9 setosa           1.4          4.4
    ## 10 setosa           1.5          4.9
    ## # … with 140 more rows

Select range of columns by name

``` r
select(iris_df, Sepal.Length : Petal.Width)
```

    ## # A tibble: 150 x 4
    ##    Sepal.Length Sepal.Width Petal.Length Petal.Width
    ##           <dbl>       <dbl>        <dbl>       <dbl>
    ##  1          5.1         3.5          1.4         0.2
    ##  2          4.9         3            1.4         0.2
    ##  3          4.7         3.2          1.3         0.2
    ##  4          4.6         3.1          1.5         0.2
    ##  5          5           3.6          1.4         0.2
    ##  6          5.4         3.9          1.7         0.4
    ##  7          4.6         3.4          1.4         0.3
    ##  8          5           3.4          1.5         0.2
    ##  9          4.4         2.9          1.4         0.2
    ## 10          4.9         3.1          1.5         0.1
    ## # … with 140 more rows

Drop specific columns (here range)

``` r
select(iris_df, -(Sepal.Length : Petal.Width))
```

    ## # A tibble: 150 x 1
    ##    Species
    ##    <chr>  
    ##  1 setosa 
    ##  2 setosa 
    ##  3 setosa 
    ##  4 setosa 
    ##  5 setosa 
    ##  6 setosa 
    ##  7 setosa 
    ##  8 setosa 
    ##  9 setosa 
    ## 10 setosa 
    ## # … with 140 more rows

### Renaming columns with `rename`

`dplyr` approach

``` r
rename(iris_df, new_col_name = Species)
```

    ## # A tibble: 150 x 5
    ##    Sepal.Length Sepal.Width Petal.Length Petal.Width new_col_name
    ##           <dbl>       <dbl>        <dbl>       <dbl> <chr>       
    ##  1          5.1         3.5          1.4         0.2 setosa      
    ##  2          4.9         3            1.4         0.2 setosa      
    ##  3          4.7         3.2          1.3         0.2 setosa      
    ##  4          4.6         3.1          1.5         0.2 setosa      
    ##  5          5           3.6          1.4         0.2 setosa      
    ##  6          5.4         3.9          1.7         0.4 setosa      
    ##  7          4.6         3.4          1.4         0.3 setosa      
    ##  8          5           3.4          1.5         0.2 setosa      
    ##  9          4.4         2.9          1.4         0.2 setosa      
    ## 10          4.9         3.1          1.5         0.1 setosa      
    ## # … with 140 more rows
…
### Add columns

#### `mutate`

The `mutate` function allows to append columns to existing ones.

``` r
mutate(iris_df, Ratio = Sepal.Length / Sepal.Width, Sum = Sepal.Length + Sepal.Width)
```

    ## # A tibble: 150 x 7
    ##    Sepal.Length Sepal.Width Petal.Length Petal.Width Species Ratio   Sum
    ##           <dbl>       <dbl>        <dbl>       <dbl> <chr>   <dbl> <dbl>
    ##  1          5.1         3.5          1.4         0.2 setosa   1.46   8.6
    ##  2          4.9         3            1.4         0.2 setosa   1.63   7.9
    ##  3          4.7         3.2          1.3         0.2 setosa   1.47   7.9
    ##  4          4.6         3.1          1.5         0.2 setosa   1.48   7.7
    ##  5          5           3.6          1.4         0.2 setosa   1.39   8.6
    ##  6          5.4         3.9          1.7         0.4 setosa   1.38   9.3
    ##  7          4.6         3.4          1.4         0.3 setosa   1.35   8  
    ##  8          5           3.4          1.5         0.2 setosa   1.47   8.4
    ##  9          4.4         2.9          1.4         0.2 setosa   1.52   7.3
    ## 10          4.9         3.1          1.5         0.1 setosa   1.58   8  
    ## # … with 140 more rows

#### `transmute`

The `transmute` function does the same as `mutate` but drops existing columns

``` r
transmute(iris_df, Ratio = Sepal.Length / Sepal.Width, Sum = Sepal.Length + Sepal.Width)
```

    ## # A tibble: 150 x 2
    ##    Ratio   Sum
    ##    <dbl> <dbl>
    ##  1  1.46   8.6
    ##  2  1.63   7.9
    ##  3  1.47   7.9
    ##  4  1.48   7.7
    ##  5  1.39   8.6
    ##  6  1.38   9.3
    ##  7  1.35   8  
    ##  8  1.47   8.4
    ##  9  1.52   7.3
    ## 10  1.58   8  
    ## # … with 140 more rows

#### `bind_cols`

The `bind_cols` function is the equivalent of `cbind` in base R. To add rows, use the corresponding
`bind_rows` function.

``` r
bind_cols(iris_df, iris_df)
```

    ## # A tibble: 150 x 10
    ##    Sepal.Length...1 Sepal.Width...2 Petal.Length...3 Petal.Width...4 Species...5 Sepal.Length...6
    ##               <dbl>           <dbl>            <dbl>           <dbl> <chr>                  <dbl>
    ##  1              5.1             3.5              1.4             0.2 setosa                   5.1
    ##  2              4.9             3                1.4             0.2 setosa                   4.9
    ##  3              4.7             3.2              1.3             0.2 setosa                   4.7
    ##  4              4.6             3.1              1.5             0.2 setosa                   4.6
    ##  5              5               3.6              1.4             0.2 setosa                   5  
    ##  6              5.4             3.9              1.7             0.4 setosa                   5.4
    ##  7              4.6             3.4              1.4             0.3 setosa                   4.6
    ##  8              5               3.4              1.5             0.2 setosa                   5  
    ##  9              4.4             2.9              1.4             0.2 setosa                   4.4
    ## 10              4.9             3.1              1.5             0.1 setosa                   4.9
    ## # … with 140 more rows, and 4 more variables: Sepal.Width...7 <dbl>, Petal.Length...8 <dbl>,
    ## #   Petal.Width...9 <dbl>, Species...10 <chr>
…
#### Example 1

Series of data manipulations and export

``` r
read_tsv("iris.txt") %>% # Import with read_tbv from readr package
    as_tibble() %>% # Declare to use tibble
    select(Sepal.Length:Species) %>% # Select columns
    filter(Species=="setosa") %>% # Filter rows by some value
    arrange(Sepal.Length) %>% # Sort by some column
    mutate(Subtract=Petal.Length - Petal.Width) # Calculate and append
```

    ## # A tibble: 50 x 6
    ##    Sepal.Length Sepal.Width Petal.Length Petal.Width Species Subtract
    ##           <dbl>       <dbl>        <dbl>       <dbl> <chr>      <dbl>
    ##  1          4.3         3            1.1         0.1 setosa       1  
    ##  2          4.4         2.9          1.4         0.2 setosa       1.2
    ##  3          4.4         3            1.3         0.2 setosa       1.1
    ##  4          4.4         3.2          1.3         0.2 setosa       1.1
    ##  5          4.5         2.3          1.3         0.3 setosa       1  
    ##  6          4.6         3.1          1.5         0.2 setosa       1.3
    ##  7          4.6         3.4          1.4         0.3 setosa       1.1
    ##  8          4.6         3.6          1           0.2 setosa       0.8
    ##  9          4.6         3.2          1.4         0.2 setosa       1.2
    ## 10          4.7         3.2          1.3         0.2 setosa       1.1
    ## # … with 40 more rows
…
